https://reverse-route-https-passthrough-reverse-proxy.mycluster-mex01-b3c-4x16-18f5cff1396700a3eb11f3582dee8624-0000.mex01.containers.appdomain.cloud

curl -v -k -s -H "X-IBM-Client-Id: cf48ee8ca22bda0d29aff0bef8eb5e2e" $URL/get_gateway

*   Trying 169.57.113.186...
* TCP_NODELAY set
* Connected to reverse-route-https-passthrough-reverse-proxy.mycluster-mex01-b3c-4x16-18f5cff1396700a3eb11f3582dee8624-0000.mex01.containers.appdomain.cloud (169.57.113.186) port 443 (#0)
* ALPN, offering h2
* ALPN, offering http/1.1
* successfully set certificate verify locations:
*   CAfile: /etc/ssl/cert.pem
  CApath: none
* TLSv1.2 (OUT), TLS handshake, Client hello (1):
* TLSv1.2 (IN), TLS handshake, Server hello (2):
* TLSv1.2 (IN), TLS handshake, Certificate (11):
* TLSv1.2 (IN), TLS handshake, Server key exchange (12):
* TLSv1.2 (IN), TLS handshake, Server finished (14):
* TLSv1.2 (OUT), TLS handshake, Client key exchange (16):
* TLSv1.2 (OUT), TLS change cipher, Change cipher spec (1):
* TLSv1.2 (OUT), TLS handshake, Finished (20):
* TLSv1.2 (IN), TLS change cipher, Change cipher spec (1):
* TLSv1.2 (IN), TLS handshake, Finished (20):
* SSL connection using TLSv1.2 / ECDHE-RSA-AES256-GCM-SHA384
* ALPN, server accepted to use http/1.1
* Server certificate:
*  subject: C=mx; ST=mexico; L=mexico; O=mex; OU=mex; CN=mex; emailAddress=mex@gmail.com
*  start date: Jan 17 15:01:21 2022 GMT
*  expire date: Jan 17 15:01:21 2023 GMT
*  issuer: C=mx; ST=mexico; L=mexico; O=mex; OU=mex; CN=mex; emailAddress=mex@gmail.com
*  SSL certificate verify result: self signed certificate (18), continuing anyway.
> GET /get_gateway HTTP/1.1
> Host: reverse-route-https-passthrough-reverse-proxy.mycluster-mex01-b3c-4x16-18f5cff1396700a3eb11f3582dee8624-0000.mex01.containers.appdomain.cloud
> User-Agent: curl/7.64.1
> Accept: */*
> X-IBM-Client-Id: cf48ee8ca22bda0d29aff0bef8eb5e2e
>
< HTTP/1.1 200 OK
< Server: nginx/1.21.4
< Date: Wed, 19 Jan 2022 16:17:10 GMT
< Content-Type: application/json; charset=utf-8
< Transfer-Encoding: chunked
< Connection: keep-alive
< Age: 14151
< x-powered-by: Express
< access-control-allow-origin: https://ademo-gw-gateway-openshift-operators.cp4i-trial-cv4tz8-e8b59cf553f37698ff3156d883d193e8-0000.us-east.containers.appdomain.cloud/
< etag: W/"406-ut0vzoCuidvyMf8arZpMpJ6ZRDw"
< via: 1.1 vegur
< Cache-Control: max-age=14400
< CF-Cache-Status: HIT
< Accept-Ranges: bytes
< Expect-CT: max-age=604800, report-uri="https://report-uri.cloudflare.com/cdn-cgi/beacon/expect-ct"
< Report-To: {"endpoints":[{"url":"https:\/\/a.nel.cloudflare.com\/report\/v3?s=4oJLSqMfrnpzzr285uTcXcm6P7gtzfQwYK6khaWSHf8mk18CB%2F11NFB5UTgvPW6kbcEi4rh3o7XztL84STHo4dwqpnfv8AzWjRGAXeoe7oaGbSkCemRmgNO5wWs%3D"}],"group":"cf-nel","max_age":604800}
< NEL: {"success_fraction":0,"report_to":"cf-nel","max_age":604800}
< CF-RAY: 6d004332ecb959af-IAD
< alt-svc: h3=":443"; ma=86400, h3-29=":443"; ma=86400
< X-Global-Transaction-ID: c6a9902a61e839860002cdf5
< Access-Control-Allow-Credentials: true
< Access-Control-Expose-Headers: APIm-Debug-Trans-Id, X-RateLimit-Limit, X-RateLimit-Remaining, X-RateLimit-Reset, X-BurstLimit-Limit, X-BurstLimit-Remaining, X-CountLimit-Limit, X-CountLimit-Remaining, Retry-After, X-Global-Transaction-ID, Location, X-APIC-Debug-OAuth-Error, X-APIC-Debug-OAuth-Error-Desc
< Vary: Origin
< X-RateLimit-Limit: name=rate-limit,100;
< X-RateLimit-Remaining: name=rate-limit,93;
< uber-trace-id: 52cfdf267148f674:52cfdf267148f674:0:0
< uberctx-consumerOrgName: sandbox-test-org
< uberctx-productName: reqres-auto-product
< uberctx-consumerOrgId: ac245ac8-e51e-4ee6-8a24-6175f3c2e3a1
< uberctx-httpRequestParams: pagina%3D2
< uberctx-objectName: apiconnect
< uberctx-consumerAppName: sandbox-test-app
< uberctx-gtidInternal: c6a9902a61e839860002cdf5
< uberctx-planId: reqres-auto-product%3A1.0.0%3Adefault
< uberctx-tid: 183797
< uberctx-apiVersion: 1.0.0
< uberctx-httpVersion: HTTP%2F1.1
< uberctx-appliance: ademo-gw-0
< uberctx-domain: apiconnect
< uberctx-httpResponseCode: 200
< uberctx-objectType: apigw
< uberctx-httpRequestUrl: https%3A%2F%2F172.30.25.157%3A9443%2Fddd-demo-test%2Fsandbox%2Freqres%2Flist-users%3Fpagina%3D2
< uberctx-providerOrg: ddd-demo-test
< uberctx-clientIp: 172.30.25.29
< uberctx-tmz: %2B00%3A00
< uberctx-catalogName: sandbox
< uberctx-isError: false
< uberctx-planName: default
< uberctx-planVersion: 1.0.0
< uberctx-responseSize: 1030
< uberctx-apiNameVerAggKey: reqres%7C~%7C1.0.0
< uberctx-httpRequestMethod: GET
< uberctx-httpRequestUri: %2Fddd-demo-test%2Fsandbox%2Freqres%2Flist-users
< uberctx-clientId: cf48ee8ca22bda0d29aff0bef8eb5e2e
< uberctx-apiName: reqres
< uberctx-productId: a1da65ce-c5ff-439a-8a82-7c32d2eb1b3a
<
* Connection #0 to host reverse-route-https-passthrough-reverse-proxy.mycluster-mex01-b3c-4x16-18f5cff1396700a3eb11f3582dee8624-0000.mex01.containers.appdomain.cloud left intact
{"page":2,"per_page":6,"total":12,"total_pages":2,"data":[{"id":7,"email":"michael.lawson@reqres.in","first_name":"Michael","last_name":"Lawson","avatar":"https://reqres.in/img/faces/7-image.jpg"},{"id":8,"email":"lindsay.ferguson@reqres.in","first_name":"Lindsay","last_name":"Ferguson","avatar":"https://reqres.in/img/faces/8-image.jpg"},{"id":9,"email":"tobias.funke@reqres.in","first_name":"Tobias","last_name":"Funke","avatar":"https://reqres.in/img/faces/9-image.jpg"},{"id":10,"email":"byron.fields@reqres.in","first_name":"Byron","last_name":"Fields","avatar":"https://reqres.in/img/faces/10-image.jpg"},{"id":11,"email":"george.edwards@reqres.in","first_name":"George","last_name":"Edwards","avatar":"https://reqres.in/img/faces/11-image.jpg"},{"id":12,"email":"rachel.howell@reqres.in","first_name":"Rachel","last_name":"Howell","avatar":"https://reqres.in/img/faces/12-image.jpg"}],"support":{"url":"https://reqres.in/#support-heading","text":"To keep ReqRes free, contributions towards server costs are appreciated!"}}* Closing connection 0